solid arduino-nano-holder
facet normal 0.0 0.0 1.0
  outer loop
    vertex 183.2913952129393 129.48390129633498 2.8
    vertex 191.09139521293915 150.12390221186237 2.8
    vertex 183.2913952129393 194.12390221186234 2.8
  endloop
endfacet
facet normal 0.0 0.0 1.0
  outer loop
    vertex 191.09139521293915 150.12390221186237 2.8
    vertex 183.2913952129393 129.48390129633498 2.8
    vertex 215.89139521293947 129.48390129633498 2.8
  endloop
endfacet
facet normal 0.0 0.0 1.0
  outer loop
    vertex 191.09139521293915 150.12390221186237 2.8
    vertex 215.89139521293947 129.48390129633498 2.8
    vertex 209.09139521293935 150.12390221186237 2.8
  endloop
endfacet
facet normal 0.0 0.0 1.0
  outer loop
    vertex 209.09139521293935 150.12390221186237 2.8
    vertex 215.89139521293947 129.48390129633498 2.8
    vertex 209.09139521293935 194.12390221186234 2.8
  endloop
endfacet
facet normal 0.0 0.0 1.0
  outer loop
    vertex 209.09139521293935 194.12390221186234 2.8
    vertex 215.89139521293947 129.48390129633498 2.8
    vertex 215.89139521293947 194.12390221186234 2.8
  endloop
endfacet
facet normal 0.0 0.0 1.0
  outer loop
    vertex 191.09139521293915 194.12390221186234 2.8
    vertex 183.2913952129393 194.12390221186234 2.8
    vertex 191.09139521293915 150.12390221186237 2.8
  endloop
endfacet
facet normal 0.0 0.0 -1.0
  outer loop
    vertex 215.89139521293947 194.12390221186234 0.0
    vertex 209.09139521293935 150.12390221186237 0.0
    vertex 209.09139521293935 194.12390221186234 0.0
  endloop
endfacet
facet normal 0.0 0.0 -1.0
  outer loop
    vertex 191.09139521293915 194.12390221186234 0.0
    vertex 183.2913952129393 129.48390129633498 0.0
    vertex 183.2913952129393 194.12390221186234 0.0
  endloop
endfacet
facet normal 0.0 0.0 -1.0
  outer loop
    vertex 183.2913952129393 129.48390129633498 0.0
    vertex 191.09139521293915 194.12390221186234 0.0
    vertex 191.09139521293915 150.12390221186237 0.0
  endloop
endfacet
facet normal 0.0 0.0 -1.0
  outer loop
    vertex 183.2913952129393 129.48390129633498 0.0
    vertex 191.09139521293915 150.12390221186237 0.0
    vertex 215.89139521293947 129.48390129633498 0.0
  endloop
endfacet
facet normal 0.0 0.0 -1.0
  outer loop
    vertex 215.89139521293947 129.48390129633498 0.0
    vertex 191.09139521293915 150.12390221186237 0.0
    vertex 209.09139521293935 150.12390221186237 0.0
  endloop
endfacet
facet normal 0.0 0.0 -1.0
  outer loop
    vertex 215.89139521293947 129.48390129633498 0.0
    vertex 209.09139521293935 150.12390221186237 0.0
    vertex 215.89139521293947 194.12390221186234 0.0
  endloop
endfacet
facet normal 0.0 1.0 0.0
  outer loop
    vertex 209.09139521293935 194.12390221186234 2.8
    vertex 215.89139521293947 194.12390221186234 0.0
    vertex 209.09139521293935 194.12390221186234 0.0
  endloop
endfacet
facet normal 0.0 1.0 0.0
  outer loop
    vertex 215.89139521293947 194.12390221186234 0.0
    vertex 209.09139521293935 194.12390221186234 2.8
    vertex 215.89139521293947 194.12390221186234 2.8
  endloop
endfacet
facet normal -1.0 -0.0 -0.0
  outer loop
    vertex 209.09139521293935 194.12390221186234 2.8
    vertex 209.09139521293935 150.12390221186237 0.0
    vertex 209.09139521293935 150.12390221186237 2.8
  endloop
endfacet
facet normal -1.0 -0.0 -0.0
  outer loop
    vertex 209.09139521293935 150.12390221186237 0.0
    vertex 209.09139521293935 194.12390221186234 2.8
    vertex 209.09139521293935 194.12390221186234 0.0
  endloop
endfacet
facet normal 0.0 1.0 0.0
  outer loop
    vertex 191.09139521293915 150.12390221186237 2.8
    vertex 209.09139521293935 150.12390221186237 0.0
    vertex 191.09139521293915 150.12390221186237 0.0
  endloop
endfacet
facet normal 0.0 1.0 0.0
  outer loop
    vertex 209.09139521293935 150.12390221186237 0.0
    vertex 191.09139521293915 150.12390221186237 2.8
    vertex 209.09139521293935 150.12390221186237 2.8
  endloop
endfacet
facet normal 1.0 0.0 0.0
  outer loop
    vertex 191.09139521293915 194.12390221186234 0.0
    vertex 191.09139521293915 150.12390221186237 2.8
    vertex 191.09139521293915 150.12390221186237 0.0
  endloop
endfacet
facet normal 1.0 0.0 0.0
  outer loop
    vertex 191.09139521293915 150.12390221186237 2.8
    vertex 191.09139521293915 194.12390221186234 0.0
    vertex 191.09139521293915 194.12390221186234 2.8
  endloop
endfacet
facet normal 0.0 1.0 0.0
  outer loop
    vertex 183.2913952129393 194.12390221186234 2.8
    vertex 191.09139521293915 194.12390221186234 0.0
    vertex 183.2913952129393 194.12390221186234 0.0
  endloop
endfacet
facet normal 0.0 1.0 0.0
  outer loop
    vertex 191.09139521293915 194.12390221186234 0.0
    vertex 183.2913952129393 194.12390221186234 2.8
    vertex 191.09139521293915 194.12390221186234 2.8
  endloop
endfacet
facet normal -1.0 -0.0 -0.0
  outer loop
    vertex 183.2913952129393 194.12390221186234 2.8
    vertex 183.2913952129393 129.48390129633498 0.0
    vertex 183.2913952129393 129.48390129633498 2.8
  endloop
endfacet
facet normal -1.0 -0.0 -0.0
  outer loop
    vertex 183.2913952129393 129.48390129633498 0.0
    vertex 183.2913952129393 194.12390221186234 2.8
    vertex 183.2913952129393 194.12390221186234 0.0
  endloop
endfacet
facet normal 0.0 -1.0 0.0
  outer loop
    vertex 215.89139521293947 129.48390129633498 2.8
    vertex 183.2913952129393 129.48390129633498 0.0
    vertex 215.89139521293947 129.48390129633498 0.0
  endloop
endfacet
facet normal 0.0 -1.0 0.0
  outer loop
    vertex 183.2913952129393 129.48390129633498 0.0
    vertex 215.89139521293947 129.48390129633498 2.8
    vertex 183.2913952129393 129.48390129633498 2.8
  endloop
endfacet
facet normal 1.0 0.0 0.0
  outer loop
    vertex 215.89139521293947 194.12390221186234 0.0
    vertex 215.89139521293947 129.48390129633498 2.8
    vertex 215.89139521293947 129.48390129633498 0.0
  endloop
endfacet
facet normal 1.0 0.0 0.0
  outer loop
    vertex 215.89139521293947 129.48390129633498 2.8
    vertex 215.89139521293947 194.12390221186234 0.0
    vertex 215.89139521293947 194.12390221186234 2.8
  endloop
endfacet
endsolid arduino-nano-holder
