solid teensy-2.0-plus-holder
facet normal 0.0 0.0 -1.0
  outer loop
    vertex 152.50032043628588 194.94566036533388 2.255973186038318e-14
    vertex 145.8003204362858 143.94566036533396 2.255973186038318e-14
    vertex 145.8003204362858 194.94566036533388 2.255973186038318e-14
  endloop
endfacet
facet normal 0.0 0.0 -1.0
  outer loop
    vertex 127.60032043628557 194.94566036533388 2.255973186038318e-14
    vertex 119.90032043628571 130.30565944980654 2.255973186038318e-14
    vertex 119.90032043628571 194.94566036533388 2.255973186038318e-14
  endloop
endfacet
facet normal 0.0 0.0 -1.0
  outer loop
    vertex 119.90032043628571 130.30565944980654 2.255973186038318e-14
    vertex 127.60032043628557 194.94566036533388 2.255973186038318e-14
    vertex 127.60032043628557 143.94566036533396 2.255973186038318e-14
  endloop
endfacet
facet normal 0.0 0.0 -1.0
  outer loop
    vertex 119.90032043628571 130.30565944980654 2.255973186038318e-14
    vertex 127.60032043628557 143.94566036533396 2.255973186038318e-14
    vertex 152.50032043628588 130.30565944980654 2.255973186038318e-14
  endloop
endfacet
facet normal 0.0 0.0 -1.0
  outer loop
    vertex 152.50032043628588 130.30565944980654 2.255973186038318e-14
    vertex 127.60032043628557 143.94566036533396 2.255973186038318e-14
    vertex 145.8003204362858 143.94566036533396 2.255973186038318e-14
  endloop
endfacet
facet normal 0.0 0.0 -1.0
  outer loop
    vertex 152.50032043628588 130.30565944980654 2.255973186038318e-14
    vertex 145.8003204362858 143.94566036533396 2.255973186038318e-14
    vertex 152.50032043628588 194.94566036533388 2.255973186038318e-14
  endloop
endfacet
facet normal 0.0 0.0 1.0
  outer loop
    vertex 119.90032043628571 130.30565944980654 2.8000000000000225
    vertex 127.60032043628557 143.94566036533396 2.8000000000000225
    vertex 119.90032043628571 194.94566036533388 2.8000000000000225
  endloop
endfacet
facet normal 0.0 0.0 1.0
  outer loop
    vertex 127.60032043628557 143.94566036533396 2.8000000000000225
    vertex 119.90032043628571 130.30565944980654 2.8000000000000225
    vertex 152.50032043628588 130.30565944980654 2.8000000000000225
  endloop
endfacet
facet normal 0.0 0.0 1.0
  outer loop
    vertex 127.60032043628557 143.94566036533396 2.8000000000000225
    vertex 152.50032043628588 130.30565944980654 2.8000000000000225
    vertex 145.8003204362858 143.94566036533396 2.8000000000000225
  endloop
endfacet
facet normal 0.0 0.0 1.0
  outer loop
    vertex 145.8003204362858 143.94566036533396 2.8000000000000225
    vertex 152.50032043628588 130.30565944980654 2.8000000000000225
    vertex 145.8003204362858 194.94566036533388 2.8000000000000225
  endloop
endfacet
facet normal 0.0 0.0 1.0
  outer loop
    vertex 145.8003204362858 194.94566036533388 2.8000000000000225
    vertex 152.50032043628588 130.30565944980654 2.8000000000000225
    vertex 152.50032043628588 194.94566036533388 2.8000000000000225
  endloop
endfacet
facet normal 0.0 0.0 1.0
  outer loop
    vertex 127.60032043628557 194.94566036533388 2.8000000000000225
    vertex 119.90032043628571 194.94566036533388 2.8000000000000225
    vertex 127.60032043628557 143.94566036533396 2.8000000000000225
  endloop
endfacet
facet normal 0.0 1.0 0.0
  outer loop
    vertex 145.8003204362858 194.94566036533388 2.8000000000000225
    vertex 152.50032043628588 194.94566036533388 2.255973186038318e-14
    vertex 145.8003204362858 194.94566036533388 2.255973186038318e-14
  endloop
endfacet
facet normal 0.0 1.0 0.0
  outer loop
    vertex 152.50032043628588 194.94566036533388 2.255973186038318e-14
    vertex 145.8003204362858 194.94566036533388 2.8000000000000225
    vertex 152.50032043628588 194.94566036533388 2.8000000000000225
  endloop
endfacet
facet normal -1.0 -0.0 -0.0
  outer loop
    vertex 145.8003204362858 194.94566036533388 2.8000000000000225
    vertex 145.8003204362858 143.94566036533396 2.255973186038318e-14
    vertex 145.8003204362858 143.94566036533396 2.8000000000000225
  endloop
endfacet
facet normal -1.0 -0.0 -0.0
  outer loop
    vertex 145.8003204362858 143.94566036533396 2.255973186038318e-14
    vertex 145.8003204362858 194.94566036533388 2.8000000000000225
    vertex 145.8003204362858 194.94566036533388 2.255973186038318e-14
  endloop
endfacet
facet normal 0.0 1.0 0.0
  outer loop
    vertex 127.60032043628557 143.94566036533396 2.8000000000000225
    vertex 145.8003204362858 143.94566036533396 2.255973186038318e-14
    vertex 127.60032043628557 143.94566036533396 2.255973186038318e-14
  endloop
endfacet
facet normal 0.0 1.0 0.0
  outer loop
    vertex 145.8003204362858 143.94566036533396 2.255973186038318e-14
    vertex 127.60032043628557 143.94566036533396 2.8000000000000225
    vertex 145.8003204362858 143.94566036533396 2.8000000000000225
  endloop
endfacet
facet normal 1.0 0.0 0.0
  outer loop
    vertex 127.60032043628557 194.94566036533388 2.255973186038318e-14
    vertex 127.60032043628557 143.94566036533396 2.8000000000000225
    vertex 127.60032043628557 143.94566036533396 2.255973186038318e-14
  endloop
endfacet
facet normal 1.0 0.0 0.0
  outer loop
    vertex 127.60032043628557 143.94566036533396 2.8000000000000225
    vertex 127.60032043628557 194.94566036533388 2.255973186038318e-14
    vertex 127.60032043628557 194.94566036533388 2.8000000000000225
  endloop
endfacet
facet normal 0.0 1.0 0.0
  outer loop
    vertex 119.90032043628571 194.94566036533388 2.8000000000000225
    vertex 127.60032043628557 194.94566036533388 2.255973186038318e-14
    vertex 119.90032043628571 194.94566036533388 2.255973186038318e-14
  endloop
endfacet
facet normal 0.0 1.0 0.0
  outer loop
    vertex 127.60032043628557 194.94566036533388 2.255973186038318e-14
    vertex 119.90032043628571 194.94566036533388 2.8000000000000225
    vertex 127.60032043628557 194.94566036533388 2.8000000000000225
  endloop
endfacet
facet normal -1.0 -0.0 -0.0
  outer loop
    vertex 119.90032043628571 194.94566036533388 2.8000000000000225
    vertex 119.90032043628571 130.30565944980654 2.255973186038318e-14
    vertex 119.90032043628571 130.30565944980654 2.8000000000000225
  endloop
endfacet
facet normal -1.0 -0.0 -0.0
  outer loop
    vertex 119.90032043628571 130.30565944980654 2.255973186038318e-14
    vertex 119.90032043628571 194.94566036533388 2.8000000000000225
    vertex 119.90032043628571 194.94566036533388 2.255973186038318e-14
  endloop
endfacet
facet normal 0.0 -1.0 0.0
  outer loop
    vertex 152.50032043628588 130.30565944980654 2.8000000000000225
    vertex 119.90032043628571 130.30565944980654 2.255973186038318e-14
    vertex 152.50032043628588 130.30565944980654 2.255973186038318e-14
  endloop
endfacet
facet normal 0.0 -1.0 0.0
  outer loop
    vertex 119.90032043628571 130.30565944980654 2.255973186038318e-14
    vertex 152.50032043628588 130.30565944980654 2.8000000000000225
    vertex 119.90032043628571 130.30565944980654 2.8000000000000225
  endloop
endfacet
facet normal 1.0 0.0 0.0
  outer loop
    vertex 152.50032043628588 194.94566036533388 2.255973186038318e-14
    vertex 152.50032043628588 130.30565944980654 2.8000000000000225
    vertex 152.50032043628588 130.30565944980654 2.255973186038318e-14
  endloop
endfacet
facet normal 1.0 0.0 0.0
  outer loop
    vertex 152.50032043628588 130.30565944980654 2.8000000000000225
    vertex 152.50032043628588 194.94566036533388 2.255973186038318e-14
    vertex 152.50032043628588 194.94566036533388 2.8000000000000225
  endloop
endfacet
endsolid teensy-2.0-plus-holder
